{
  "name": "Address",
  "fields": [
    {
      "fieldName": "address1",
      "fieldType": "String"
    },
    {
      "fieldName": "address2",
      "fieldType": "String"
    },
    {
      "fieldName": "city",
      "fieldType": "String"
    },
    {
      "fieldName": "postcode",
      "fieldType": "String",
      "fieldValidateRules": ["required", "maxlength"],
      "fieldValidateRulesMaxlength": "10"
    },
    {
      "fieldName": "country",
      "fieldType": "String",
      "fieldValidateRules": ["required", "maxlength"],
      "fieldValidateRulesMaxlength": "2"
    }
  ],
  "relationships": [
    {
      "relationshipType": "many-to-one",
      "otherEntityName": "customer",
      "otherEntityRelationshipName": "address",
      "relationshipName": "customer"
    }
  ],
  "entityTableName": "address",
  "dto": "no",
  "pagination": "pagination",
  "service": "no",
  "jpaMetamodelFiltering": false,
  "fluentMethods": true,
  "readOnly": false,
  "embedded": false,
  "applications": "*",
  "changelogDate": "20210516180912"
}
