{
  "name": "Category",
  "fields": [
    {
      "fieldName": "description",
      "fieldType": "String",
      "fieldValidateRules": ["required"]
    },
    {
      "fieldName": "sortOrder",
      "fieldType": "Integer"
    },
    {
      "fieldName": "dateAdded",
      "fieldType": "LocalDate"
    },
    {
      "fieldName": "dateModified",
      "fieldType": "LocalDate"
    },
    {
      "fieldName": "status",
      "fieldType": "CategoryStatus",
      "fieldValues": "AVAILABLE,RESTRICTED,DISABLED"
    }
  ],
  "relationships": [
    {
      "relationshipType": "many-to-one",
      "otherEntityName": "category",
      "otherEntityRelationshipName": "category",
      "relationshipName": "parent"
    },
    {
      "relationshipType": "many-to-many",
      "otherEntityName": "product",
      "otherEntityRelationshipName": "category",
      "relationshipName": "product",
      "otherEntityField": "title",
      "ownerSide": true
    }
  ],
  "entityTableName": "category",
  "dto": "no",
  "pagination": "pagination",
  "service": "serviceClass",
  "jpaMetamodelFiltering": false,
  "fluentMethods": true,
  "readOnly": false,
  "embedded": false,
  "applications": "*",
  "changelogDate": "20210516180909"
}
